<?xml version="1.0" encoding="UTF-8" standalone="no"?>
<svg
   xmlns:dc="http://purl.org/dc/elements/1.1/"
   xmlns:cc="http://creativecommons.org/ns#"
   xmlns:rdf="http://www.w3.org/1999/02/22-rdf-syntax-ns#"
   xmlns:svg="http://www.w3.org/2000/svg"
   xmlns="http://www.w3.org/2000/svg"
   xmlns:sodipodi="http://sodipodi.sourceforge.net/DTD/sodipodi-0.dtd"
   xmlns:inkscape="http://www.inkscape.org/namespaces/inkscape"
   width="168.2310701039655mm"
   height="191.66781139016695mm"
   viewBox="0 0 168.2310701039655 191.66781139016695"
   version="1.1"
   id="svg2"
   inkscape:version="0.91 r13725"
   sodipodi:docname="ChandlerShieldV3.svg">
  <metadata
     id="metadata30">
    <rdf:RDF>
      <cc:Work
         rdf:about="">
        <dc:format>image/svg+xml</dc:format>
        <dc:type
           rdf:resource="http://purl.org/dc/dcmitype/StillImage" />
      </cc:Work>
    </rdf:RDF>
  </metadata>
  <defs
     id="defs28" />
  <sodipodi:namedview
     pagecolor="#ffffff"
     bordercolor="#666666"
     borderopacity="1"
     objecttolerance="10"
     gridtolerance="10"
     guidetolerance="10"
     inkscape:pageopacity="0"
     inkscape:pageshadow="2"
     inkscape:window-width="640"
     inkscape:window-height="480"
     id="namedview26"
     showgrid="false"
     inkscape:zoom="0.34749937"
     inkscape:cx="298.04716"
     inkscape:cy="339.56897"
     inkscape:window-x="0"
     inkscape:window-y="0"
     inkscape:window-maximized="0"
     inkscape:current-layer="svg2" />
  <desc
     id="desc4">Output from Flights of Ideas SVG Sketchup Plugin</desc>
  <g
     id="g3358"
     transform="matrix(-1,0,0,-1,168.23087,191.66707)">
    <path
       d="m 29.400217,172.90989 m -0.910795,-0.11825 m -0.727647,0.56041 m -0.118252,0.9108 m 0.560414,0.72764 m 0.910795,0.11825 m 0.727647,-0.56041 m 0.118252,-0.91079"
       style="fill:none;stroke:#0000ff;stroke-width:1;stroke-linecap:round;stroke-linejoin:round;stroke-miterlimit:4;stroke-dasharray:none"
       id="face0-cut"
       inkscape:connector-curvature="0" />
    <path
       d="m 19.219798,172.6149 m -0.642216,-0.75996 m -0.991487,-0.0833 m -0.759959,0.64221 m -0.08326,0.99149 m 0.642216,0.75996 m 0.991487,0.0833 m 0.759959,-0.64222"
       style="fill:none;stroke:#0000ff;stroke-width:1;stroke-linecap:round;stroke-linejoin:round;stroke-miterlimit:4;stroke-dasharray:none"
       id="face1-cut"
       inkscape:connector-curvature="0" />
    <path
       d="m 18.577582,19.812876 m 0.642216,-0.75996 m -0.08326,-0.991487 m -0.759959,-0.642216 m -0.991487,0.08326 m -0.642216,0.759959 m 0.08326,0.991488 m 0.759959,0.642215"
       style="fill:none;stroke:#0000ff;stroke-width:1;stroke-linecap:round;stroke-linejoin:round;stroke-miterlimit:4;stroke-dasharray:none"
       id="face2-cut"
       inkscape:connector-curvature="0" />
    <path
       d="m 28.489422,18.876174 m 0.910795,-0.118252 m 0.560414,-0.727646 M 29.842379,17.11948 m -0.727647,-0.560413 m -0.910795,0.118251 m -0.560414,0.727647 m 0.118252,0.910796"
       style="fill:none;stroke:#0000ff;stroke-width:1;stroke-linecap:round;stroke-linejoin:round;stroke-miterlimit:4;stroke-dasharray:none"
       id="face3-cut"
       inkscape:connector-curvature="0" />
    <path
       d="m 113.13165,91.124617 0.148,4.709289 -0.148,4.709284 -0.41658,4.40702 -0.0268,0.28369 -0.73706,4.6536 -1.02781,4.59815 -1.31449,4.52453 -1.59601,4.43307 -1.8712,4.3241 -2.13903,4.19808 -2.39841,4.05549 -2.217573,3.26306 -2.238618,2.81583 -2.407784,2.67261 -2.567809,2.51925 -2.718087,2.35634 -2.858044,2.18446 -2.987152,2.0043 -3.104918,1.81652 -2.593049,1.30978 -2.952285,1.12024 -5.680536,1.91685 -5.747928,1.70416 -5.807359,1.48909 -5.858748,1.27198 -5.902019,1.05308 -5.937119,0.83274 -5.963992,0.61124 -5.982607,0.3889 -5.992935,0.16602 -5.994962,-0.0571 -0.153809,-0.0319 -0.154735,-0.027 -0.155506,-0.0221 -0.156124,-0.0172 -0.156589,-0.0123 -0.156899,-0.007 -0.157054,-0.002 -0.157054,0.002 -0.156899,0.007 -0.156589,0.0123 -0.156124,0.0172 -0.155506,0.0221 -0.154735,0.027 -0.153809,0.0319 -0.152733,0.0367 -0.151507,0.0414 -0.150129,0.0462 -0.148605,0.0509 -0.146933,0.0555 -0.145116,0.0601 -0.143157,0.0646 -0.141056,0.0691 -0.138816,0.0735 -0.136439,0.0778 -0.133927,0.0821 -0.131283,0.0862 -0.128509,0.0903 -0.125609,0.0943 -0.122585,0.0982 -0.119439,0.10201 -0.116177,0.10571 -0.112798,0.10931 -0.109309,0.1128 -0.105712,0.11617 -0.102011,0.11944 -0.09821,0.12259 -0.09431,0.12561 -0.09032,0.12851 -0.08624,0.13128 -0.08207,0.13393 -0.07782,0.13643 -0.0735,0.13882 -0.0691,0.14106 -0.06464,0.14315 -0.06011,0.14512 -0.05552,0.14693 -0.05088,0.14861 -0.04618,0.15013 -0.04145,0.1515 -0.03667,0.15274 -0.03185,0.15381 -0.02701,0.15473 -0.02213,0.15551 -0.01724,0.15612 -0.01232,0.15659 -0.0074,0.1569 -0.0025,0.15705 0.0025,0.15706 0.0074,0.15689 0.01232,0.15659 0.01724,0.15613 0.02213,0.1555 0.02701,0.15474 0.03185,0.15381 0.03667,0.15273 0.04145,0.15151 0.04618,0.15013 0.05088,0.1486 0.05552,0.14694 0.06011,0.14511 0.06464,0.14316 0.0691,0.14105 0.0735,0.13882 0.07782,0.13644 0.08207,0.13393 0.08624,0.13128 0.09032,0.12851 0.09431,0.12561 0.09821,0.12258 0.102011,0.11944 0.105712,0.11618 0.109309,0.1128 0.112798,0.10931 0.116177,0.10571 0.119439,0.10201 0.122585,0.0982 0.125609,0.0943 0.128509,0.0903 0.131283,0.0862 0.133927,0.0821 0.136439,0.0778 0.138816,0.0735 0.141056,0.0691 0.143157,0.0646 0.145116,0.0601 0.146933,0.0555 0.148605,0.0509 0.150129,0.0462 3.534735,1.02694 1.719724,0.427 1.726297,0.39959 1.732434,0.37209 1.738133,0.34449 1.743392,0.31681 1.74821,0.28903 1.752586,0.2612 1.756518,0.23328 1.760007,0.20532 1.763049,0.17731 1.765646,0.14924 1.767797,0.12114 1.769499,0.093 1.770755,0.0649 1.771563,0.0367 1.771921,0.008 1.771833,-0.0197 1.771296,-0.0479 1.770311,-0.076 1.768878,-0.10417 1.766997,-0.13229 1.76467,-0.16037 1.761896,-0.18842 1.758676,-0.21642 1.755013,-0.24436 1.750903,-0.27224 1.746353,-0.30006 1.741359,-0.32779 1.735926,-0.35544 1.730053,-0.38301 1.723742,-0.41048 1.716997,-0.43784 0.245831,-0.0669 1.463984,-0.39823 1.702203,-0.49222 0.847079,-0.25962 2.631373,-0.91187 0.330152,0.73019 -3.594632,1.42593 0.09242,0.14209 0.09633,0.13947 0.100174,0.13674 0.103934,0.1339 0.107615,0.13096 0.111213,0.12792 0.114724,0.12478 0.118147,0.12154 0.121479,0.11821 0.124717,0.1148 0.127859,0.11128 0.130901,0.10768 0.133844,0.10401 0.136682,0.10025 0.139414,0.0964 0.14204,0.0925 0.144555,0.0885 0.14696,0.0845 0.149249,0.0804 0.151425,0.0762 0.153483,0.0719 0.155422,0.0676 0.157242,0.0633 0.158941,0.0589 0.160515,0.0545 0.161967,0.05 0.163294,0.0455 0.164493,0.0409 0.165567,0.0363 0.166512,0.0317 0.167329,0.0271 0.168017,0.0224 0.168574,0.0177 0.169002,0.013 0.169298,0.008 0.169466,0.004 0.1695,-0.001 0.169405,-0.006 0.169179,-0.0105 0.168821,-0.0152 0.168335,-0.0199 0.167717,-0.0245 0.16697,-0.0292 0.166094,-0.0338 0.16509,-0.0384 0.163958,-0.043 0.162701,-0.0475 0.161316,-0.0521 0.159808,-0.0565 0.158176,-0.0609 0.156422,-0.0653 0.154547,-0.0696 0.152552,-0.0739 0.150441,-0.0781 0.148212,-0.0823 0.14587,-0.0863 0.143415,-0.0904 0.140848,-0.0943 0.138174,-0.0982 0.135391,-0.10199 0.132506,-0.1057 0.129517,-0.10935 0.126429,-0.11291 0.123243,-0.11637 0.119961,-0.11975 0.116587,-0.12304 0.113123,-0.12624 0.109572,-0.12932 0.105936,-0.13233 0.102218,-0.13521 0.09842,-0.138 0.09455,-0.14069 0.0906,-0.14326 0.08659,-0.14572 0.0825,-0.14807 0.07836,-0.1503 0.07415,-0.15243 0.06989,-0.15442 0.06557,-0.15631 0.0612,-0.15807 0.05678,-0.15971 0.05232,-0.16123 0.04782,-0.16261 0.04329,-0.16389 0.03872,-0.16502 0.03411,-0.16604 0.02949,-0.16691 0.02484,-0.16768 0.02017,-0.1683 0.01548,-0.16879 0.01079,-0.16916 0.0061,-0.1694 0.0014,-0.1695 -0.0033,-0.16947 -0.008,-0.16931 -0.01274,-0.16902 -0.01744,-0.16861 -0.02211,-0.16805 -0.02678,-0.16738 -0.03142,-0.16657 -0.911188,0.41199 -0.381109,-0.84289 1.536798,-0.67111 1.734505,-0.79053 1.721713,-0.81801 1.708485,-0.8453 1.694825,-0.87236 1.680736,-0.8992 1.666223,-0.92583 1.651291,-0.9522 1.63593,-0.97835 1.62017,-1.00424 1.60399,-1.02989 1.58741,-1.05526 1.57042,-1.08038 1.55304,-1.10522 1.53527,-1.12977 1.51711,-1.15406 1.49856,-1.17803 1.47963,-1.20172 1.46033,-1.2251 1.44067,-1.24817 1.42063,-1.27093 1.40024,-1.29336 1.37949,-1.31546 1.35839,-1.33724 1.33696,-1.35867 1.31518,-1.37977 1.29306,-1.40051 1.27063,-1.4209 1.24787,-1.44092 1.2248,-1.46059 1.2014,-1.47989 1.17773,-1.4988 1.15373,-1.51735 1.12946,-1.5355 1.10489,-1.55328 0.73446,-1.06807 0.34559,-0.50258 1.05493,-1.58763 0.82147,-1.27997 0.31287,-0.53579 0.31048,-0.53718 0.30806,-0.53857 0.30566,-0.53993 0.30323,-0.54131 0.30081,-0.54265 0.29837,-0.544 0.29593,-0.54532 0.29349,-0.54665 0.29104,-0.54795 0.28858,-0.54926 0.28612,-0.55053 0.79021,-1.58599 0.76489,-1.59835 0.12622,-0.27492 0.61314,-1.3354 0.71367,-1.62187 0.68777,-1.63302 0.66172,-1.64374 0.63549,-1.65407 0.60911,-1.66396 0.58256,-1.67344 0.55587,-1.68249 0.0557,-0.17315 0.0518,-0.16261 0.0508,-0.16291 0.0499,-0.1632 0.026,-0.0868 0.023,-0.0767 0.048,-0.16375 0.0471,-0.16404 0.0461,-0.1643 0.0452,-0.16456 0.0443,-0.16482 0.0433,-0.16507 0.0423,-0.16532 0.0414,-0.16556 0.0404,-0.16579 0.0395,-0.16602 0.0385,-0.16625 0.0376,-0.16647 0.0366,-0.16668 0.0357,-0.16689 0.0347,-0.16709 0.0337,-0.16728 0.0328,-0.16748 0.0318,-0.16767 0.0309,-0.16784 0.0299,-0.16802 0.0289,-0.16818 0.028,-0.168356 0.027,-0.168509 0.026,-0.168661 0.025,-0.168808 0.0241,-0.168949 0.0231,-0.169085 0.0221,-0.169215 0.007,-0.05998 1.15015,0 0,1.856693 0.1548,-0.002 0.15465,-0.007 0.15435,-0.0122 0.15388,-0.017 0.15328,-0.0218 0.15252,-0.0266 0.1516,-0.0314 0.15055,-0.0361 0.14933,-0.0409 0.14798,-0.0455 0.14647,-0.0502 0.14483,-0.0547 0.14304,-0.0593 0.1411,-0.0637 0.13904,-0.0681 0.13683,-0.0724 0.13448,-0.07671 0.13201,-0.08089 0.1294,-0.085 0.12667,-0.08902 0.1238,-0.09296 0.12083,-0.0968 0.11773,-0.100549 0.11451,-0.104197 0.11118,-0.107743 0.10775,-0.111182 0.10419,-0.114511 0.10055,-0.117728 0.0968,-0.120828 0.093,-0.123809 0.089,-0.126667 0.085,-0.129402 0.0809,-0.132007 0.0767,-0.134484 0.0724,-0.136826 0.0681,-0.139035 0.0637,-0.141105 0.0592,-0.143037 0.0547,-0.144828 0.0502,-0.146475 0.0455,-0.147978 0.0409,-0.149335 0.0361,-0.150544 0.0314,-0.151605 0.0266,-0.152517 0.0218,-0.153278 0.017,-0.153887 0.0121,-0.154345 0.007,-0.15465 9.5e-4,-0.06046 -9.5e-4,-0.06046 -0.007,-0.154651 -0.0121,-0.154345 -0.017,-0.153887 -0.0218,-0.153277 -0.0266,-0.152517 -0.0314,-0.151606 -0.0361,-0.150544 -0.0409,-0.149335 -0.0455,-0.147978 -0.0502,-0.146475 -0.0547,-0.144827 -0.0592,-0.143037 -0.0637,-0.141106 -0.0681,-0.139034 -0.0724,-0.136827 -0.0767,-0.134483 -0.0809,-0.132008 -0.085,-0.129401 -0.089,-0.126668 -0.093,-0.123809 -0.0968,-0.120828 -0.10055,-0.117728 -0.10419,-0.114511 -0.10775,-0.111182 -0.11118,-0.107742 -0.11451,-0.104198 -0.11773,-0.100549 -0.12083,-0.0968 -0.1238,-0.09296 -0.12667,-0.08902 -0.1294,-0.085 -0.13201,-0.08089 -0.13448,-0.07671 -0.13683,-0.07245 -0.13904,-0.06811 -0.1411,-0.06371 -0.14304,-0.05925 -0.14483,-0.05473 -0.14647,-0.05015 -0.14798,-0.04552 -0.14933,-0.04085 -0.15055,-0.03614 -0.1516,-0.0314 -0.15252,-0.02662 -0.15328,-0.02182 -0.15388,-0.01699 -0.15435,-0.01215 -0.15465,-0.0073 -0.1548,-0.0024 0,1.856691 -1.15015,0 -0.007,-0.05998 -0.0221,-0.169215 -0.0231,-0.169084 -0.0241,-0.16895 -0.025,-0.168808 -0.026,-0.168661 -0.027,-0.168509 -0.028,-0.168351 -0.0289,-0.168187 -0.0299,-0.168019 -0.0309,-0.167844 -0.0318,-0.167663 -0.0328,-0.167478 -0.0337,-0.167287 -0.0347,-0.16709 -0.0357,-0.166888 -0.0366,-0.16668 -0.0376,-0.166466 -0.0385,-0.166248 -0.0395,-0.166024 -0.0404,-0.165793 -0.0414,-0.165559 -0.0423,-0.165318 -0.0433,-0.165071 -0.0443,-0.16482 -0.0452,-0.164563 -0.0461,-0.1643 -0.0471,-0.164032 -0.048,-0.163759 -0.023,-0.07667 -0.026,-0.08681 -0.0499,-0.163196 -0.0508,-0.162906 -0.0518,-0.162611 -0.0557,-0.173149 -0.55587,-1.682493 -0.58256,-1.673439 -0.60911,-1.663963 -0.63549,-1.654065 -0.66172,-1.643748 -0.68777,-1.633017 -0.71367,-1.621871 -0.61314,-1.335397 -0.12622,-0.274918 -0.76489,-1.598353 -0.79021,-1.585986 -0.28612,-0.550538 -0.28858,-0.549252 -0.29104,-0.547955 -0.29349,-0.546646 -0.29593,-0.545326 -0.29837,-0.543996 -0.30081,-0.542654 -0.30323,-0.541302 -0.30566,-0.53994 -0.30806,-0.538565 -0.31048,-0.53718 -0.31287,-0.535786 -0.82147,-1.279978 -1.05493,-1.587629 -0.34559,-0.502572 -0.73446,-1.068077 -1.10489,-1.553274 -1.12946,-1.535504 -1.15373,-1.517347 -1.17773,-1.498805 -1.2014,-1.479885 -1.2248,-1.46059 -1.24787,-1.440926 -1.27063,-1.420897 -1.29306,-1.400509 -1.31518,-1.379766 -1.33696,-1.358674 -1.35839,-1.337239 -1.37949,-1.315466 -1.40024,-1.293359 -1.42063,-1.270926 -1.44067,-1.248171 -1.46033,-1.2251 -1.47963,-1.201719 -1.49856,-1.178035 -1.51711,-1.154052 -1.53527,-1.129778 -1.55304,-1.105217 -1.57042,-1.080377 -1.58741,-1.055264 -1.60399,-1.029884 -1.62017,-1.004243 -1.63593,-0.978348 -1.651291,-0.952206 -1.666223,-0.925823 -1.680736,-0.899205 -1.694825,-0.872361 -1.708485,-0.845295 -1.721713,-0.818016 -1.734505,-0.790529 -1.536798,-0.671111 0.381109,-0.84289 0.911188,0.41199 0.03142,-0.166567 0.02678,-0.167375 0.02211,-0.168055 0.01744,-0.168605 0.01274,-0.169024 0.008,-0.169313 0.0033,-0.169471 -0.0014,-0.169498 -0.0061,-0.169395 -0.01079,-0.16916 -0.01548,-0.168795 -0.02017,-0.1683 -0.02484,-0.167674 -0.02949,-0.166919 -0.03411,-0.166036 -0.03872,-0.165023 -0.04329,-0.163884 -0.04782,-0.162617 -0.05232,-0.161226 -0.05678,-0.15971 -0.0612,-0.15807 -0.06557,-0.156308 -0.06989,-0.154426 -0.07415,-0.152425 -0.07836,-0.150305 -0.0825,-0.14807 -0.08659,-0.145719 -0.0906,-0.143258 -0.09455,-0.140685 -0.09842,-0.138003 -0.102218,-0.135215 -0.105936,-0.132322 -0.109572,-0.129328 -0.113123,-0.126232 -0.116587,-0.123041 -0.119961,-0.119754 -0.123243,-0.116373 -0.126429,-0.112905 -0.129517,-0.109347 -0.132506,-0.105706 -0.135391,-0.101984 -0.138174,-0.09818 -0.140848,-0.0943 -0.143415,-0.09035 -0.14587,-0.08633 -0.148212,-0.08225 -0.150441,-0.0781 -0.152552,-0.07389 -0.154547,-0.06962 -0.156422,-0.0653 -0.158176,-0.06093 -0.159808,-0.05651 -0.161316,-0.05204 -0.162701,-0.04754 -0.163958,-0.043 -0.16509,-0.03843 -0.166094,-0.03383 -0.16697,-0.0292 -0.167717,-0.02455 -0.168335,-0.01988 -0.168821,-0.01519 -0.169179,-0.0105 -0.169405,-0.0058 -0.1695,-0.0011 -0.169466,0.0036 -0.169298,0.0083 -0.169002,0.01304 -0.168574,0.01773 -0.168017,0.02241 -0.167329,0.02707 -0.166512,0.03171 -0.165567,0.03632 -0.164493,0.04091 -0.163294,0.04546 -0.161967,0.04998 -0.160515,0.05446 -0.158941,0.0589 -0.157242,0.0633 -0.155422,0.06764 -0.153483,0.07193 -0.151425,0.07617 -0.149249,0.08035 -0.14696,0.08447 -0.144555,0.08852 -0.14204,0.0925 -0.139414,0.09641 -0.136682,0.100248 -0.133844,0.104008 -0.130901,0.107686 -0.127859,0.111282 -0.124717,0.114792 -0.121479,0.118214 -0.118147,0.121543 -0.114724,0.12478 -0.111213,0.127919 -0.107615,0.13096 -0.103934,0.1339 -0.100174,0.136737 -0.09633,0.139467 -0.09242,0.14209 3.594632,1.425932 L 80.122703,15.80503 77.49131,14.893372 76.644231,14.633754 74.942028,14.141528 73.478044,13.743306 73.232213,13.676437 71.515216,13.238598 69.791474,12.828122 68.061421,12.445113 66.325495,12.089668 64.584136,11.761877 62.837783,11.461823 61.08688,11.189581 59.331867,10.94522 57.573191,10.728803 55.811295,10.540384 54.046625,10.380011 52.279628,10.247723 50.51075,10.143556 48.740439,10.067535 46.969143,10.019679 45.19731,10 l -1.771921,0.0085 -1.771563,0.03668 -1.770755,0.06485 -1.769499,0.09301 -1.767797,0.121141 -1.765646,0.149241 -1.763049,0.177303 -1.760007,0.205322 -1.756518,0.233287 -1.752586,0.261194 -1.74821,0.289035 -1.743392,0.316802 -1.738133,0.34449 -1.732434,0.37209 -1.726297,0.399597 -1.719724,0.427001 -3.534735,1.026936 -0.150129,0.04619 -0.148605,0.05088 -0.146933,0.05552 -0.145116,0.06011 -0.143157,0.06464 -0.141056,0.0691 -0.138816,0.0735 -0.136439,0.07782 -0.133927,0.08207 -0.131283,0.08624 -0.128509,0.09032 -0.125609,0.09431 -0.122585,0.09821 -0.119439,0.102011 -0.116177,0.105712 -0.112798,0.109309 -0.109309,0.112799 -0.105712,0.116176 -0.102011,0.119439 -0.09821,0.122585 -0.09431,0.125609 -0.09032,0.128509 -0.08624,0.131283 -0.08207,0.133927 -0.07782,0.136439 -0.0735,0.138816 -0.0691,0.141056 -0.06464,0.143157 -0.06011,0.145116 -0.05552,0.146934 -0.05088,0.148604 -0.04618,0.15013 -0.04145,0.151506 -0.03667,0.152733 -0.03185,0.15381 -0.02701,0.154734 -0.02213,0.155506 -0.01724,0.156125 -0.01232,0.156589 -0.0074,0.156898 -0.0025,0.157054 0.0025,0.157054 0.0074,0.156899 0.01232,0.156589 0.01724,0.156124 0.02213,0.155506 0.02701,0.154735 0.03185,0.153809 0.03667,0.152734 0.04145,0.151506 0.04618,0.150129 0.05088,0.148605 0.05552,0.146933 0.06011,0.145117 0.06464,0.143157 0.0691,0.141056 0.0735,0.138816 0.07782,0.136438 0.08207,0.133927 0.08624,0.131283 0.09032,0.128509 0.09431,0.125609 0.09821,0.122585 0.102011,0.119439 0.105712,0.116177 0.109309,0.112798 0.112798,0.109309 0.116177,0.105712 0.119439,0.102011 0.122585,0.09821 0.125609,0.09431 0.128509,0.09032 0.131283,0.08624 0.133927,0.08207 0.136439,0.07782 0.138816,0.0735 0.141056,0.0691 0.143157,0.06464 0.145116,0.06011 0.146933,0.05552 0.148605,0.05088 0.150129,0.04619 0.151507,0.04145 0.152733,0.03667 0.153809,0.03185 0.154735,0.02701 0.155506,0.02213 0.156124,0.01724 0.156589,0.01232 0.156899,0.0074 0.157054,0.0025 0.157054,-0.0025 0.156899,-0.0074 0.156589,-0.01232 0.156124,-0.01724 0.155506,-0.02213 0.154735,-0.02701 0.153809,-0.03185 5.994962,-0.0571 5.992935,0.166015 5.982607,0.388898 5.963992,0.611243 5.937119,0.83274 5.902019,1.053085 5.858748,1.271971 5.807359,1.489094 5.747928,1.704157 5.680536,1.916857 2.952285,1.120235 2.593049,1.309777 3.104918,1.816528 2.987152,2.004299 2.858044,2.184462 2.718087,2.356331 2.567809,2.519255 2.407784,2.672614 2.238618,2.815827 2.217573,3.263063 2.39841,4.055484 2.13903,4.198079 1.8712,4.324105 1.59601,4.433067 1.31449,4.524533 1.02781,4.598143 0.73706,4.653606 0.0268,0.283684 0.41658,4.40702 M 29.400217,18.757922 m -0.910795,0.118252 m -0.727647,-0.560413 m -0.118252,-0.910796 m 0.560414,-0.727647 m 0.910795,-0.118251 m 0.727647,0.560413 m 0.118252,0.910796 m -10.740833,1.02264 m -0.642216,0.75996 m -0.991487,0.08326 m -0.759959,-0.642215 m -0.08326,-0.991488 m 0.642216,-0.759959 m 0.991487,-0.08326 m 0.759959,0.642216 m -0.558956,153.79351 m 0.642216,0.75996 m -0.08326,0.99148 m -0.759959,0.64222 m -0.991487,-0.0833 m -0.642216,-0.75996 m 0.08326,-0.99149 m 0.759959,-0.64221 m 10.903327,1.01996 m 0.910795,0.11825 m 0.560414,0.72765 m -0.118252,0.91079 m -0.727647,0.56041 m -0.910795,-0.11825 m -0.560414,-0.72764 m 0.118252,-0.9108"
       style="fill:none;stroke:#0000ff;stroke-width:1;stroke-linecap:round;stroke-linejoin:round;stroke-miterlimit:4;stroke-dasharray:none"
       id="face4-cut"
       inkscape:connector-curvature="0" />
    <path
       d="m 29.400217,172.90989 -0.910795,-0.11825 -0.727647,0.56041 -0.118252,0.9108 0.560414,0.72764 0.910795,0.11825 0.727647,-0.56041 0.118252,-0.91079 -0.560414,-0.72765"
       style="fill:none;stroke:#ff0000;stroke-width:1;stroke-linecap:round;stroke-linejoin:round;stroke-miterlimit:4;stroke-dasharray:none"
       id="face0-interior"
       inkscape:connector-curvature="0" />
    <path
       d="m 19.219798,172.6149 -0.642216,-0.75996 -0.991487,-0.0833 -0.759959,0.64221 -0.08326,0.99149 0.642216,0.75996 0.991487,0.0833 0.759959,-0.64222 0.08326,-0.99148"
       style="fill:none;stroke:#ff0000;stroke-width:1;stroke-linecap:round;stroke-linejoin:round;stroke-miterlimit:4;stroke-dasharray:none"
       id="face1-interior"
       inkscape:connector-curvature="0" />
    <path
       d="m 18.577582,19.812876 0.642216,-0.75996 -0.08326,-0.991487 -0.759959,-0.642216 -0.991487,0.08326 -0.642216,0.759959 0.08326,0.991488 0.759959,0.642215 0.991487,-0.08326"
       style="fill:none;stroke:#ff0000;stroke-width:1;stroke-linecap:round;stroke-linejoin:round;stroke-miterlimit:4;stroke-dasharray:none"
       id="face2-interior"
       inkscape:connector-curvature="0" />
    <path
       d="m 28.489422,18.876174 0.910795,-0.118252 0.560414,-0.727646 -0.118252,-0.910796 -0.727647,-0.560413 -0.910795,0.118251 -0.560414,0.727647 0.118252,0.910796 0.727647,0.560413"
       style="fill:none;stroke:#ff0000;stroke-width:1;stroke-linecap:round;stroke-linejoin:round;stroke-miterlimit:4;stroke-dasharray:none"
       id="face3-interior"
       inkscape:connector-curvature="0" />
    <path
       d="m 113.13165,91.124617 m 0.148,4.709289 m -0.148,4.709284 m -0.41658,4.40702 m -0.0268,0.28369 m -0.73706,4.6536 m -1.02781,4.59815 m -1.31449,4.52453 m -1.59601,4.43307 m -1.8712,4.3241 m -2.13903,4.19808 m -2.39841,4.05549 m -2.217573,3.26306 m -2.238618,2.81583 m -2.407784,2.67261 m -2.567809,2.51925 m -2.718087,2.35634 m -2.858044,2.18446 m -2.987152,2.0043 m -3.104918,1.81652 m -2.593049,1.30978 m -2.952285,1.12024 m -5.680536,1.91685 m -5.747928,1.70416 m -5.807359,1.48909 m -5.858748,1.27198 m -5.902019,1.05308 m -5.937119,0.83274 m -5.963992,0.61124 m -5.982607,0.3889 m -5.992935,0.16602 m -5.994962,-0.0571 m -0.153809,-0.0319 m -0.154735,-0.027 m -0.155506,-0.0221 m -0.156124,-0.0172 m -0.156589,-0.0123 m -0.156899,-0.007 M 15,167.33985 m -0.157054,0.002 m -0.156899,0.007 m -0.156589,0.0123 m -0.156124,0.0172 m -0.155506,0.0221 m -0.154735,0.027 m -0.153809,0.0319 m -0.152733,0.0367 m -0.151507,0.0414 m -0.150129,0.0462 m -0.148605,0.0509 m -0.146933,0.0555 m -0.145116,0.0601 m -0.143157,0.0646 m -0.141056,0.0691 m -0.138816,0.0735 m -0.136439,0.0778 m -0.133927,0.0821 m -0.131283,0.0862 m -0.128509,0.0903 m -0.125609,0.0943 m -0.122585,0.0982 m -0.119439,0.10201 m -0.116177,0.10571 m -0.112798,0.10931 m -0.109309,0.1128 m -0.105712,0.11617 m -0.102011,0.11944 m -0.09821,0.12259 m -0.09431,0.12561 m -0.09032,0.12851 m -0.08624,0.13128 m -0.08207,0.13393 m -0.07782,0.13643 m -0.0735,0.13882 m -0.0691,0.14106 m -0.06464,0.14315 m -0.06011,0.14512 m -0.05552,0.14693 m -0.05088,0.14861 m -0.04618,0.15013 m -0.04145,0.1515 m -0.03667,0.15274 m -0.03185,0.15381 m -0.02701,0.15473 m -0.02213,0.15551 m -0.01724,0.15612 m -0.01232,0.15659 m -0.0074,0.1569 M 10,172.33985 m 0.0025,0.15706 m 0.0074,0.15689 m 0.01232,0.15659 m 0.01724,0.15613 m 0.02213,0.1555 m 0.02701,0.15474 m 0.03185,0.15381 m 0.03667,0.15273 m 0.04145,0.15151 m 0.04618,0.15013 m 0.05088,0.1486 m 0.05552,0.14694 m 0.06011,0.14511 m 0.06464,0.14316 m 0.0691,0.14105 m 0.0735,0.13882 m 0.07782,0.13644 m 0.08207,0.13393 m 0.08624,0.13128 m 0.09032,0.12851 m 0.09431,0.12561 m 0.09821,0.12258 m 0.102011,0.11944 m 0.105712,0.11618 m 0.109309,0.1128 m 0.112798,0.10931 m 0.116177,0.10571 m 0.119439,0.10201 m 0.122585,0.0982 m 0.125609,0.0943 m 0.128509,0.0903 m 0.131283,0.0862 m 0.133927,0.0821 m 0.136439,0.0778 m 0.138816,0.0735 m 0.141056,0.0691 m 0.143157,0.0646 m 0.145116,0.0601 m 0.146933,0.0555 m 0.148605,0.0509 m 0.150129,0.0462 m 3.534735,1.02694 m 1.719724,0.427 m 1.726297,0.39959 m 1.732434,0.37209 m 1.738133,0.34449 m 1.743392,0.31681 m 1.74821,0.28903 m 1.752586,0.2612 m 1.756518,0.23328 m 1.760007,0.20532 m 1.763049,0.17731 m 1.765646,0.14924 m 1.767797,0.12114 m 1.769499,0.093 m 1.770755,0.0649 m 1.771563,0.0367 m 1.771921,0.008 m 1.771833,-0.0197 m 1.771296,-0.0479 m 1.770311,-0.076 m 1.768878,-0.10417 m 1.766997,-0.13229 m 1.76467,-0.16037 m 1.761896,-0.18842 m 1.758676,-0.21642 m 1.755013,-0.24436 m 1.750903,-0.27224 m 1.746353,-0.30006 m 1.741359,-0.32779 m 1.735926,-0.35544 m 1.730053,-0.38301 m 1.723742,-0.41048 m 1.716997,-0.43784 m 0.245831,-0.0669 m 1.463984,-0.39823 m 1.702203,-0.49222 m 0.847079,-0.25962 m 2.631373,-0.91187 m 0.330152,0.73019 m -3.594632,1.42593 m 0.09242,0.14209 m 0.09633,0.13947 m 0.100174,0.13674 m 0.103934,0.1339 m 0.107615,0.13096 m 0.111213,0.12792 m 0.114724,0.12478 m 0.118147,0.12154 m 0.121479,0.11821 m 0.124717,0.1148 m 0.127859,0.11128 m 0.130901,0.10768 m 0.133844,0.10401 m 0.136682,0.10025 m 0.139414,0.0964 m 0.14204,0.0925 m 0.144555,0.0885 m 0.14696,0.0845 m 0.149249,0.0804 m 0.151425,0.0762 m 0.153483,0.0719 m 0.155422,0.0676 m 0.157242,0.0633 m 0.158941,0.0589 m 0.160515,0.0545 m 0.161967,0.05 m 0.163294,0.0455 m 0.164493,0.0409 m 0.165567,0.0363 m 0.166512,0.0317 m 0.167329,0.0271 m 0.168017,0.0224 m 0.168574,0.0177 m 0.169002,0.013 m 0.169298,0.008 m 0.169466,0.004 m 0.1695,-0.001 m 0.169405,-0.006 m 0.169179,-0.0105 m 0.168821,-0.0152 m 0.168335,-0.0199 m 0.167717,-0.0245 m 0.16697,-0.0292 m 0.166094,-0.0338 m 0.16509,-0.0384 m 0.163958,-0.043 m 0.162701,-0.0475 m 0.161316,-0.0521 m 0.159808,-0.0565 m 0.158176,-0.0609 m 0.156422,-0.0653 m 0.154547,-0.0696 m 0.152552,-0.0739 m 0.150441,-0.0781 m 0.148212,-0.0823 m 0.14587,-0.0863 m 0.143415,-0.0904 m 0.140848,-0.0943 m 0.138174,-0.0982 m 0.135391,-0.10199 m 0.132506,-0.1057 m 0.129517,-0.10935 m 0.126429,-0.11291 m 0.123243,-0.11637 m 0.119961,-0.11975 m 0.116587,-0.12304 m 0.113123,-0.12624 m 0.109572,-0.12932 m 0.105936,-0.13233 m 0.102218,-0.13521 m 0.09842,-0.138 m 0.09455,-0.14069 m 0.0906,-0.14326 m 0.08659,-0.14572 m 0.0825,-0.14807 m 0.07836,-0.1503 m 0.07415,-0.15243 m 0.06989,-0.15442 m 0.06557,-0.15631 m 0.0612,-0.15807 m 0.05678,-0.15971 m 0.05232,-0.16123 m 0.04782,-0.16261 m 0.04329,-0.16389 m 0.03872,-0.16502 m 0.03411,-0.16604 m 0.02949,-0.16691 m 0.02484,-0.16768 m 0.02017,-0.1683 m 0.01548,-0.16879 m 0.01079,-0.16916 m 0.0061,-0.1694 m 0.0014,-0.1695 m -0.0033,-0.16947 m -0.008,-0.16931 m -0.01274,-0.16902 m -0.01744,-0.16861 m -0.02211,-0.16805 m -0.02678,-0.16738 m -0.03142,-0.16657 m -0.911188,0.41199 m -0.381109,-0.84289 m 1.536798,-0.67111 m 1.734505,-0.79053 m 1.721713,-0.81801 m 1.708485,-0.8453 m 1.694825,-0.87236 m 1.680736,-0.8992 m 1.666223,-0.92583 m 1.651285,-0.9522 m 1.63593,-0.97835 m 1.62017,-1.00424 m 1.60399,-1.02989 m 1.58741,-1.05526 m 1.57042,-1.08038 m 1.55304,-1.10522 m 1.53527,-1.12977 m 1.51711,-1.15406 m 1.49856,-1.17803 m 1.47963,-1.20172 m 1.46033,-1.2251 m 1.44067,-1.24817 m 1.42063,-1.27093 m 1.40024,-1.29336 m 1.37949,-1.31546 m 1.35839,-1.33724 m 1.33696,-1.35867 m 1.31518,-1.37977 m 1.29306,-1.40051 m 1.27063,-1.4209 m 1.24787,-1.44092 m 1.2248,-1.46059 m 1.2014,-1.47989 m 1.17773,-1.4988 m 1.15373,-1.51735 m 1.12946,-1.5355 m 1.10489,-1.55328 m 0.73446,-1.06807 m 0.34559,-0.50258 m 1.05493,-1.58763 M 140.57,127.2536 m 0.31287,-0.53579 m 0.31048,-0.53718 m 0.30806,-0.53857 m 0.30566,-0.53993 m 0.30323,-0.54131 m 0.30081,-0.54265 m 0.29837,-0.544 m 0.29593,-0.54532 m 0.29349,-0.54665 m 0.29104,-0.54795 m 0.28858,-0.54926 m 0.28612,-0.55053 m 0.79021,-1.58599 m 0.76489,-1.59835 m 0.12622,-0.27492 m 0.61314,-1.3354 m 0.71367,-1.62187 m 0.68777,-1.63302 m 0.66172,-1.64374 m 0.63549,-1.65407 m 0.60911,-1.66396 m 0.58256,-1.67344 m 0.55587,-1.68249 m 0.0557,-0.17315 m 0.0518,-0.16261 m 0.0508,-0.16291 m 0.0499,-0.1632 m 0.026,-0.0868 m 0.023,-0.0767 m 0.048,-0.16375 m 0.0471,-0.16404 m 0.0461,-0.1643 m 0.0452,-0.16456 m 0.0443,-0.16482 m 0.0433,-0.16507 m 0.0423,-0.16532 m 0.0414,-0.16556 m 0.0404,-0.16579 m 0.0395,-0.16602 m 0.0385,-0.16625 m 0.0376,-0.16647 m 0.0366,-0.16668 m 0.0357,-0.16689 m 0.0347,-0.16709 m 0.0337,-0.16728 m 0.0328,-0.16748 m 0.0318,-0.16767 m 0.0309,-0.16784 m 0.0299,-0.16802 m 0.0289,-0.16818 m 0.028,-0.168356 m 0.027,-0.168509 m 0.026,-0.168661 m 0.025,-0.168808 m 0.0241,-0.168949 m 0.0231,-0.169085 m 0.0221,-0.169215 m 0.007,-0.05998 m 1.15015,0 m 0,1.856693 m 0.1548,-0.002 m 0.15465,-0.007 m 0.15435,-0.0122 m 0.15388,-0.017 m 0.15328,-0.0218 m 0.15252,-0.0266 m 0.1516,-0.0314 m 0.15055,-0.0361 m 0.14933,-0.0409 m 0.14798,-0.0455 m 0.14647,-0.0502 m 0.14483,-0.0547 m 0.14304,-0.0593 m 0.1411,-0.0637 m 0.13904,-0.0681 m 0.13683,-0.0724 m 0.13448,-0.07671 m 0.13201,-0.08089 m 0.1294,-0.085 m 0.12667,-0.08902 m 0.1238,-0.09296 m 0.12083,-0.0968 m 0.11773,-0.100549 m 0.11451,-0.104197 m 0.11118,-0.107743 m 0.10775,-0.111182 m 0.10419,-0.114511 m 0.10055,-0.117728 m 0.0968,-0.120828 m 0.093,-0.123809 m 0.089,-0.126667 m 0.085,-0.129402 m 0.0809,-0.132007 m 0.0767,-0.134484 m 0.0724,-0.136826 m 0.0681,-0.139035 m 0.0637,-0.141105 m 0.0592,-0.143037 m 0.0547,-0.144828 m 0.0502,-0.146475 m 0.0455,-0.147978 m 0.0409,-0.149335 m 0.0361,-0.150544 m 0.0314,-0.151605 m 0.0266,-0.152517 m 0.0218,-0.153278 m 0.017,-0.153887 m 0.0121,-0.154345 m 0.007,-0.15465 m 9.5e-4,-0.06046 m -9.5e-4,-0.06046 m -0.007,-0.154651 m -0.0121,-0.154345 m -0.017,-0.153887 m -0.0218,-0.153277 m -0.0266,-0.152517 m -0.0314,-0.151606 m -0.0361,-0.150544 m -0.0409,-0.149335 m -0.0455,-0.147978 m -0.0502,-0.146475 m -0.054,-0.145519 m -0.0592,-0.143037 m -0.0637,-0.141106 m -0.0681,-0.139034 m -0.0724,-0.136827 m -0.0767,-0.134483 m -0.0809,-0.132008 m -0.085,-0.129401 m -0.089,-0.126668 m -0.093,-0.123809 m -0.0968,-0.120828 m -0.10055,-0.117728 m -0.10419,-0.114511 m -0.10775,-0.111182 M 156.678,92.335636 m -0.11451,-0.104198 m -0.11773,-0.100549 m -0.12083,-0.0968 m -0.1238,-0.09296 m -0.12667,-0.08902 m -0.1294,-0.085 m -0.13201,-0.08089 m -0.13448,-0.07671 m -0.13683,-0.07245 m -0.13904,-0.06811 m -0.1411,-0.06371 m -0.14304,-0.05925 m -0.14483,-0.05473 m -0.14647,-0.05015 m -0.14798,-0.04552 m -0.14933,-0.04085 m -0.15055,-0.03614 m -0.1516,-0.0314 m -0.15252,-0.02662 m -0.15328,-0.02182 m -0.15388,-0.01699 m -0.15435,-0.01215 m -0.15465,-0.0073 m -0.1548,-0.0024 m 0,1.856691 m -1.15015,0 m -0.007,-0.05998 m -0.0221,-0.169215 m -0.0231,-0.169084 m -0.0241,-0.16895 m -0.025,-0.168808 m -0.026,-0.168661 m -0.027,-0.168509 m -0.028,-0.168351 m -0.0289,-0.168187 m -0.0299,-0.168019 m -0.0309,-0.167844 m -0.0318,-0.167663 m -0.0328,-0.167478 m -0.0337,-0.167287 m -0.0347,-0.16709 m -0.0357,-0.166888 m -0.0366,-0.16668 m -0.0376,-0.166466 m -0.0385,-0.166248 m -0.0395,-0.166024 m -0.0404,-0.165793 m -0.0414,-0.165559 m -0.0423,-0.165318 m -0.0433,-0.165071 m -0.0443,-0.16482 m -0.0452,-0.164563 m -0.0461,-0.1643 m -0.0471,-0.164032 m -0.048,-0.163759 m -0.023,-0.07667 m -0.026,-0.08681 m -0.0499,-0.163196 m -0.0508,-0.162906 m -0.0518,-0.162611 m -0.0557,-0.173149 m -0.55587,-1.682493 m -0.58256,-1.673439 m -0.60911,-1.663963 m -0.63549,-1.654065 m -0.66172,-1.643748 m -0.68777,-1.633017 m -0.71367,-1.621871 m -0.61314,-1.335397 m -0.12622,-0.274918 m -0.76489,-1.598353 m -0.79021,-1.585986 m -0.28612,-0.550538 m -0.28858,-0.549252 M 143.2989,69.28561 m -0.29349,-0.546646 m -0.29593,-0.545326 m -0.29837,-0.543996 m -0.30081,-0.542654 m -0.30323,-0.541302 m -0.30566,-0.53994 m -0.30806,-0.538565 m -0.31048,-0.53718 M 140.57,64.414215 m -0.82147,-1.279978 m -1.05493,-1.587629 m -0.34559,-0.502572 m -0.73446,-1.068077 m -1.10489,-1.553274 m -1.12946,-1.535504 m -1.15373,-1.517347 m -1.17773,-1.498805 m -1.2014,-1.479885 m -1.2248,-1.46059 m -1.24787,-1.440926 m -1.27063,-1.420897 m -1.29306,-1.400509 m -1.31518,-1.379766 m -1.33696,-1.358674 m -1.35839,-1.337239 m -1.37949,-1.315466 m -1.40024,-1.293359 m -1.42063,-1.270926 m -1.44067,-1.248171 m -1.46033,-1.2251 m -1.47963,-1.201719 m -1.49856,-1.178035 m -1.51711,-1.154052 m -1.53527,-1.129778 m -1.55304,-1.105217 m -1.57042,-1.080377 m -1.58741,-1.055264 m -1.60399,-1.029884 m -1.62017,-1.004243 m -1.63593,-0.978348 M 98.445273,24.370398 M 96.77905,23.444575 M 95.098314,22.54537 m -1.694825,-0.872361 m -1.708485,-0.845295 m -1.721713,-0.818016 m -1.734505,-0.790529 m -1.536798,-0.671111 m 0.381109,-0.84289 m 0.911188,0.41199 m 0.03142,-0.166567 m 0.02678,-0.167375 m 0.02211,-0.168055 m 0.01744,-0.168605 m 0.01274,-0.169024 m 0.008,-0.169313 m 0.0033,-0.169471 m -0.0014,-0.169498 m -0.0061,-0.169395 m -0.01079,-0.16916 M 88.082423,16.2619 m -0.02017,-0.1683 m -0.02484,-0.167674 m -0.02949,-0.166919 m -0.03411,-0.166036 m -0.03872,-0.165023 m -0.04329,-0.163884 m -0.04782,-0.162617 m -0.05232,-0.161226 m -0.05678,-0.15971 m -0.0612,-0.15807 m -0.06557,-0.156308 m -0.06989,-0.154426 m -0.07415,-0.152425 m -0.07836,-0.150305 m -0.0825,-0.14807 m -0.08659,-0.145719 m -0.0906,-0.143258 m -0.09455,-0.140685 m -0.09842,-0.138003 M 86.830831,13.158027 M 86.724895,13.025705 M 86.615323,12.896377 M 86.5022,12.770145 M 86.385613,12.647104 M 86.265652,12.52735 M 86.142409,12.410977 M 86.01598,12.298072 m -0.129517,-0.109347 m -0.132506,-0.105706 m -0.135391,-0.101984 m -0.138174,-0.09818 m -0.140848,-0.0943 m -0.143415,-0.09035 m -0.14587,-0.08633 m -0.148212,-0.08225 m -0.150441,-0.0781 m -0.152552,-0.07389 m -0.154547,-0.06962 m -0.156422,-0.0653 m -0.158176,-0.06093 m -0.159808,-0.05651 m -0.161316,-0.05204 m -0.162701,-0.04754 m -0.163958,-0.043 m -0.16509,-0.03843 m -0.166094,-0.03383 m -0.16697,-0.0292 m -0.167717,-0.02455 m -0.168335,-0.01988 m -0.168821,-0.01519 m -0.169179,-0.0105 m -0.169405,-0.0058 m -0.1695,-0.0011 m -0.169466,0.0036 m -0.169298,0.0083 m -0.169002,0.01304 m -0.168574,0.01773 m -0.168017,0.02241 m -0.167329,0.02707 m -0.166512,0.03171 m -0.165567,0.03632 m -0.164493,0.04091 m -0.163294,0.04546 m -0.161967,0.04998 m -0.160515,0.05446 m -0.158941,0.0589 m -0.157242,0.0633 m -0.155422,0.06764 m -0.153483,0.07193 m -0.151425,0.07617 m -0.149249,0.08035 m -0.14696,0.08447 m -0.144555,0.08852 m -0.14204,0.0925 m -0.139414,0.09641 m -0.136682,0.100248 m -0.133844,0.104008 m -0.130901,0.107686 m -0.127859,0.111282 m -0.124717,0.114792 m -0.121479,0.118214 m -0.118147,0.121543 m -0.114724,0.12478 m -0.111213,0.127919 m -0.107615,0.13096 m -0.103934,0.1339 m -0.100174,0.136737 m -0.09633,0.139467 m -0.09242,0.14209 m 3.594632,1.425932 m -0.330152,0.730189 m -2.631381,-0.91177 m -0.847079,-0.259618 m -1.702203,-0.492226 m -1.463984,-0.398222 m -0.245831,-0.06687 M 71.515216,13.238598 M 69.791474,12.828122 M 68.061421,12.445113 M 66.325495,12.089668 M 64.584136,11.761877 M 62.837783,11.461823 M 61.08688,11.189581 M 59.331867,10.94522 m -1.758676,-0.216417 m -1.761896,-0.188419 m -1.76467,-0.160373 M 52.279628,10.247723 M 50.51075,10.143556 m -1.770311,-0.07602 m -1.771296,-0.04786 M 45.19731,10 m -1.771921,0.0085 m -1.771563,0.03668 m -1.770755,0.06485 m -1.769499,0.09301 m -1.767797,0.121141 m -1.765646,0.149241 m -1.763049,0.177303 m -1.760007,0.205322 m -1.756518,0.233287 m -1.752586,0.261194 m -1.74821,0.289035 m -1.743392,0.316802 m -1.738133,0.34449 m -1.732434,0.37209 m -1.726297,0.399597 m -1.719724,0.427001 m -3.534735,1.026936 m -0.150129,0.04619 m -0.148605,0.05088 m -0.146933,0.05552 m -0.145116,0.06011 m -0.143157,0.06464 m -0.141056,0.0691 m -0.138816,0.0735 m -0.136439,0.07782 m -0.133927,0.08207 m -0.131283,0.08624 m -0.128509,0.09032 m -0.125609,0.09431 m -0.122585,0.09821 M 11.693441,15.5774 m -0.116177,0.105712 m -0.112798,0.109309 m -0.109309,0.112799 m -0.105712,0.11618 m -0.102011,0.119439 m -0.09821,0.122585 m -0.09431,0.125609 m -0.09032,0.128509 m -0.08624,0.131283 m -0.08207,0.133927 m -0.07782,0.136439 m -0.0735,0.138816 m -0.0691,0.141056 m -0.06464,0.143157 m -0.06011,0.145116 m -0.05552,0.146934 m -0.05088,0.148604 m -0.04618,0.15013 m -0.04145,0.151506 m -0.03667,0.152733 m -0.03185,0.15381 m -0.02701,0.154734 m -0.02213,0.155506 m -0.01724,0.156125 m -0.01232,0.156589 m -0.0074,0.156898 M 10,19.327959 m 0.0025,0.157054 m 0.0074,0.156899 m 0.01232,0.156589 m 0.01724,0.156124 m 0.02213,0.155506 m 0.02701,0.154735 m 0.03185,0.153809 m 0.03667,0.152734 m 0.04145,0.151506 m 0.04618,0.150129 m 0.05088,0.148605 m 0.05552,0.146933 m 0.06011,0.145117 m 0.06464,0.143157 m 0.0691,0.141056 m 0.0735,0.138816 m 0.07782,0.136438 m 0.08207,0.133927 m 0.08624,0.131283 m 0.09032,0.128509 m 0.09431,0.125609 m 0.09821,0.122585 m 0.102011,0.119439 m 0.105712,0.116177 m 0.109309,0.112798 m 0.112798,0.109309 m 0.116177,0.105712 m 0.119439,0.102011 m 0.122585,0.09821 m 0.125609,0.09431 m 0.128509,0.09032 m 0.131283,0.08624 m 0.133927,0.08207 m 0.136439,0.07782 m 0.138816,0.0735 m 0.141056,0.0691 m 0.143157,0.06464 m 0.145116,0.06011 m 0.146933,0.05552 m 0.148605,0.05088 m 0.150129,0.04619 m 0.151507,0.04145 m 0.152733,0.03667 m 0.153809,0.03185 m 0.154735,0.02701 m 0.155506,0.02213 m 0.156124,0.01724 m 0.156589,0.01232 m 0.156899,0.0074 M 15,24.327959 m 0.157054,-0.0025 m 0.156899,-0.0074 m 0.156589,-0.01232 m 0.156124,-0.01724 m 0.155506,-0.02213 m 0.154735,-0.02701 m 0.153809,-0.03185 m 5.994962,-0.0571 m 5.992935,0.166015 m 5.982607,0.388898 m 5.963992,0.611243 m 5.937119,0.83274 m 5.902019,1.053085 m 5.858748,1.271971 m 5.807359,1.489094 m 5.747928,1.704157 m 5.680536,1.916857 m 2.952285,1.120235 m 2.593049,1.309777 m 3.104918,1.816528 m 2.987152,2.004299 m 2.858044,2.184462 m 2.718087,2.356331 m 2.567809,2.519255 m 2.407784,2.672614 m 2.238618,2.815827 m 2.217573,3.263063 m 2.39841,4.055484 m 2.13903,4.198079 m 1.8712,4.324105 m 1.59601,4.433067 m 1.31449,4.524533 m 1.02781,4.598143 m 0.73706,4.653606 m 0.0268,0.283684 M 29.400217,18.757922 m -0.910795,0.118252 m -0.727647,-0.560413 m -0.118252,-0.910796 m 0.560414,-0.727647 m 0.910795,-0.118251 m 0.727647,0.560413 m 0.118252,0.910796 m -10.740833,1.02264 m -0.642216,0.75996 m -0.991487,0.08326 m -0.759959,-0.642215 m -0.08326,-0.991488 m 0.642216,-0.759959 m 0.991487,-0.08326 m 0.759959,0.642216 m -0.558956,153.79351 m 0.642216,0.75996 m -0.08326,0.99148 m -0.759959,0.64222 m -0.991487,-0.0833 m -0.642216,-0.75996 m 0.08326,-0.99149 m 0.759959,-0.64221 m 10.903327,1.01996 m 0.910795,0.11825 m 0.560414,0.72765 m -0.118252,0.91079 m -0.727647,0.56041 m -0.910795,-0.11825 m -0.560414,-0.72764 m 0.118252,-0.9108"
       style="fill:none;stroke:#ff0000;stroke-width:1;stroke-linecap:round;stroke-linejoin:round;stroke-miterlimit:4;stroke-dasharray:none"
       id="face4-interior"
       inkscape:connector-curvature="0" />
    <path
       d="m 29.400217,172.90989 m -0.910795,-0.11825 m -0.727647,0.56041 m -0.118252,0.9108 m 0.560414,0.72764 m 0.910795,0.11825 m 0.727647,-0.56041 m 0.118252,-0.91079"
       style="fill:none;stroke:#00ff00;stroke-width:1;stroke-linecap:round;stroke-linejoin:round;stroke-miterlimit:4;stroke-dasharray:none"
       id="path16"
       inkscape:connector-curvature="0" />
    <path
       d="m 19.219798,172.6149 m -0.642216,-0.75996 m -0.991487,-0.0833 m -0.759959,0.64221 m -0.08326,0.99149 m 0.642216,0.75996 m 0.991487,0.0833 m 0.759959,-0.64222"
       style="fill:none;stroke:#00ff00;stroke-width:1;stroke-linecap:round;stroke-linejoin:round;stroke-miterlimit:4;stroke-dasharray:none"
       id="path18"
       inkscape:connector-curvature="0" />
    <path
       d="m 18.577582,19.812876 m 0.642216,-0.75996 m -0.08326,-0.991487 m -0.759959,-0.642216 m -0.991487,0.08326 m -0.642216,0.759959 m 0.08326,0.991488 m 0.759959,0.642215"
       style="fill:none;stroke:#00ff00;stroke-width:1;stroke-linecap:round;stroke-linejoin:round;stroke-miterlimit:4;stroke-dasharray:none"
       id="path20"
       inkscape:connector-curvature="0" />
    <path
       d="m 28.489422,18.876174 m 0.910795,-0.118252 m 0.560414,-0.727646 M 29.842379,17.11948 m -0.727647,-0.560413 m -0.910795,0.118251 m -0.560414,0.727647 m 0.118252,0.910796"
       style="fill:none;stroke:#00ff00;stroke-width:1;stroke-linecap:round;stroke-linejoin:round;stroke-miterlimit:4;stroke-dasharray:none"
       id="path22"
       inkscape:connector-curvature="0" />
    <path
       d="m 113.13165,91.124617 m 0.148,4.709289 m -0.148,4.709284 m -0.41658,4.40702 m -0.0268,0.28369 m -0.73706,4.6536 m -1.02781,4.59815 m -1.31449,4.52453 m -1.59601,4.43307 m -1.8712,4.3241 m -2.13903,4.19808 m -2.39841,4.05549 m -2.217573,3.26306 m -2.238618,2.81583 m -2.407784,2.67261 m -2.567809,2.51925 m -2.718087,2.35634 m -2.858044,2.18446 m -2.987152,2.0043 m -3.104918,1.81652 m -2.593049,1.30978 m -2.952285,1.12024 m -5.680536,1.91685 m -5.747928,1.70416 m -5.807359,1.48909 m -5.858748,1.27198 m -5.902019,1.05308 m -5.937119,0.83274 m -5.963992,0.61124 m -5.982607,0.3889 m -5.992935,0.16602 m -5.994962,-0.0571 m -0.153809,-0.0319 m -0.154735,-0.027 m -0.155506,-0.0221 m -0.156124,-0.0172 m -0.156589,-0.0123 m -0.156899,-0.007 M 15,167.33985 m -0.157054,0.002 m -0.156899,0.007 m -0.156589,0.0123 m -0.156124,0.0172 m -0.155506,0.0221 m -0.154735,0.027 m -0.153809,0.0319 m -0.152733,0.0367 m -0.151507,0.0414 m -0.150129,0.0462 m -0.148605,0.0509 m -0.146933,0.0555 m -0.145116,0.0601 m -0.143157,0.0646 m -0.141056,0.0691 m -0.138816,0.0735 m -0.136439,0.0778 m -0.133927,0.0821 m -0.131283,0.0862 m -0.128509,0.0903 m -0.125609,0.0943 m -0.122585,0.0982 m -0.119439,0.10201 m -0.116177,0.10571 m -0.112798,0.10931 m -0.109309,0.1128 m -0.105712,0.11617 m -0.102011,0.11944 m -0.09821,0.12259 m -0.09431,0.12561 m -0.09032,0.12851 m -0.08624,0.13128 m -0.08207,0.13393 m -0.07782,0.13643 m -0.0735,0.13882 m -0.0691,0.14106 m -0.06464,0.14315 m -0.06011,0.14512 m -0.05552,0.14693 m -0.05088,0.14861 m -0.04618,0.15013 m -0.04145,0.1515 m -0.03667,0.15274 m -0.03185,0.15381 m -0.02701,0.15473 m -0.02213,0.15551 m -0.01724,0.15612 m -0.01232,0.15659 m -0.0074,0.1569 M 10,172.33985 m 0.0025,0.15706 m 0.0074,0.15689 m 0.01232,0.15659 m 0.01724,0.15613 m 0.02213,0.1555 m 0.02701,0.15474 m 0.03185,0.15381 m 0.03667,0.15273 m 0.04145,0.15151 m 0.04618,0.15013 m 0.05088,0.1486 m 0.05552,0.14694 m 0.06011,0.14511 m 0.06464,0.14316 m 0.0691,0.14105 m 0.0735,0.13882 m 0.07782,0.13644 m 0.08207,0.13393 m 0.08624,0.13128 m 0.09032,0.12851 m 0.09431,0.12561 m 0.09821,0.12258 m 0.102011,0.11944 m 0.105712,0.11618 m 0.109309,0.1128 m 0.112798,0.10931 m 0.116177,0.10571 m 0.119439,0.10201 m 0.122585,0.0982 m 0.125609,0.0943 m 0.128509,0.0903 m 0.131283,0.0862 m 0.133927,0.0821 m 0.136439,0.0778 m 0.138816,0.0735 m 0.141056,0.0691 m 0.143157,0.0646 m 0.145116,0.0601 m 0.146933,0.0555 m 0.148605,0.0509 m 0.150129,0.0462 m 3.534735,1.02694 m 1.719724,0.427 m 1.726297,0.39959 m 1.732434,0.37209 m 1.738133,0.34449 m 1.743392,0.31681 m 1.74821,0.28903 m 1.752586,0.2612 m 1.756518,0.23328 m 1.760007,0.20532 m 1.763049,0.17731 m 1.765646,0.14924 m 1.767797,0.12114 m 1.769499,0.093 m 1.770755,0.0649 m 1.771563,0.0367 m 1.771921,0.008 m 1.771833,-0.0197 m 1.771296,-0.0479 m 1.770311,-0.076 m 1.768878,-0.10417 m 1.766997,-0.13229 m 1.76467,-0.16037 m 1.761896,-0.18842 m 1.758676,-0.21642 m 1.755013,-0.24436 m 1.750903,-0.27224 m 1.746353,-0.30006 m 1.741359,-0.32779 m 1.735926,-0.35544 m 1.730053,-0.38301 m 1.723742,-0.41048 m 1.716997,-0.43784 m 0.245831,-0.0669 m 1.463984,-0.39823 m 1.702203,-0.49222 m 0.847079,-0.25962 m 2.631373,-0.91187 m 0.330152,0.73019 m -3.594632,1.42593 m 0.09242,0.14209 m 0.09633,0.13947 m 0.100174,0.13674 m 0.103934,0.1339 m 0.107615,0.13096 m 0.111213,0.12792 m 0.114724,0.12478 m 0.118147,0.12154 m 0.121479,0.11821 m 0.124717,0.1148 m 0.127859,0.11128 m 0.130901,0.10768 m 0.133844,0.10401 m 0.136682,0.10025 m 0.139414,0.0964 m 0.14204,0.0925 m 0.144555,0.0885 m 0.14696,0.0845 m 0.149249,0.0804 m 0.151425,0.0762 m 0.153483,0.0719 m 0.155422,0.0676 m 0.157242,0.0633 m 0.158941,0.0589 m 0.160515,0.0545 m 0.161967,0.05 m 0.163294,0.0455 m 0.164493,0.0409 m 0.165567,0.0363 m 0.166512,0.0317 m 0.167329,0.0271 m 0.168017,0.0224 m 0.168574,0.0177 m 0.169002,0.013 m 0.169298,0.008 m 0.169466,0.004 m 0.1695,-0.001 m 0.169405,-0.006 m 0.169179,-0.0105 m 0.168821,-0.0152 m 0.168335,-0.0199 m 0.167717,-0.0245 m 0.16697,-0.0292 m 0.166094,-0.0338 m 0.16509,-0.0384 m 0.163958,-0.043 m 0.162701,-0.0475 m 0.161316,-0.0521 m 0.159808,-0.0565 m 0.158176,-0.0609 m 0.156422,-0.0653 m 0.154547,-0.0696 m 0.152552,-0.0739 m 0.150441,-0.0781 m 0.148212,-0.0823 m 0.14587,-0.0863 m 0.143415,-0.0904 m 0.140848,-0.0943 m 0.138174,-0.0982 m 0.135391,-0.10199 m 0.132506,-0.1057 m 0.129517,-0.10935 m 0.126429,-0.11291 m 0.123243,-0.11637 m 0.119961,-0.11975 m 0.116587,-0.12304 m 0.113123,-0.12624 m 0.109572,-0.12932 m 0.105936,-0.13233 m 0.102218,-0.13521 m 0.09842,-0.138 m 0.09455,-0.14069 m 0.0906,-0.14326 m 0.08659,-0.14572 m 0.0825,-0.14807 m 0.07836,-0.1503 m 0.07415,-0.15243 m 0.06989,-0.15442 m 0.06557,-0.15631 m 0.0612,-0.15807 m 0.05678,-0.15971 m 0.05232,-0.16123 m 0.04782,-0.16261 m 0.04329,-0.16389 m 0.03872,-0.16502 m 0.03411,-0.16604 m 0.02949,-0.16691 m 0.02484,-0.16768 m 0.02017,-0.1683 m 0.01548,-0.16879 m 0.01079,-0.16916 m 0.0061,-0.1694 m 0.0014,-0.1695 m -0.0033,-0.16947 m -0.008,-0.16931 m -0.01274,-0.16902 m -0.01744,-0.16861 m -0.02211,-0.16805 m -0.02678,-0.16738 m -0.03142,-0.16657 m -0.911188,0.41199 m -0.381109,-0.84289 m 1.536798,-0.67111 m 1.734505,-0.79053 m 1.721713,-0.81801 m 1.708485,-0.8453 m 1.694825,-0.87236 m 1.680736,-0.8992 m 1.666223,-0.92583 m 1.651285,-0.9522 m 1.63593,-0.97835 m 1.62017,-1.00424 m 1.60399,-1.02989 m 1.58741,-1.05526 m 1.57042,-1.08038 m 1.55304,-1.10522 m 1.53527,-1.12977 m 1.51711,-1.15406 m 1.49856,-1.17803 m 1.47963,-1.20172 m 1.46033,-1.2251 m 1.44067,-1.24817 m 1.42063,-1.27093 m 1.40024,-1.29336 m 1.37949,-1.31546 m 1.35839,-1.33724 m 1.33696,-1.35867 m 1.31518,-1.37977 m 1.29306,-1.40051 m 1.27063,-1.4209 m 1.24787,-1.44092 m 1.2248,-1.46059 m 1.2014,-1.47989 m 1.17773,-1.4988 m 1.15373,-1.51735 m 1.12946,-1.5355 m 1.10489,-1.55328 m 0.73446,-1.06807 m 0.34559,-0.50258 m 1.05493,-1.58763 M 140.57,127.2536 m 0.31287,-0.53579 m 0.31048,-0.53718 m 0.30806,-0.53857 m 0.30566,-0.53993 m 0.30323,-0.54131 m 0.30081,-0.54265 m 0.29837,-0.544 m 0.29593,-0.54532 m 0.29349,-0.54665 m 0.29104,-0.54795 m 0.28858,-0.54926 m 0.28612,-0.55053 m 0.79021,-1.58599 m 0.76489,-1.59835 m 0.12622,-0.27492 m 0.61314,-1.3354 m 0.71367,-1.62187 m 0.68777,-1.63302 m 0.66172,-1.64374 m 0.63549,-1.65407 m 0.60911,-1.66396 m 0.58256,-1.67344 m 0.55587,-1.68249 m 0.0557,-0.17315 m 0.0518,-0.16261 m 0.0508,-0.16291 m 0.0499,-0.1632 m 0.026,-0.0868 m 0.023,-0.0767 m 0.048,-0.16375 m 0.0471,-0.16404 m 0.0461,-0.1643 m 0.0452,-0.16456 m 0.0443,-0.16482 m 0.0433,-0.16507 m 0.0423,-0.16532 m 0.0414,-0.16556 m 0.0404,-0.16579 m 0.0395,-0.16602 m 0.0385,-0.16625 m 0.0376,-0.16647 m 0.0366,-0.16668 m 0.0357,-0.16689 m 0.0347,-0.16709 m 0.0337,-0.16728 m 0.0328,-0.16748 m 0.0318,-0.16767 m 0.0309,-0.16784 m 0.0299,-0.16802 m 0.0289,-0.16818 m 0.028,-0.168356 m 0.027,-0.168509 m 0.026,-0.168661 m 0.025,-0.168808 m 0.0241,-0.168949 m 0.0231,-0.169085 m 0.0221,-0.169215 m 0.007,-0.05998 m 1.15015,0 m 0,1.856693 m 0.1548,-0.002 m 0.15465,-0.007 m 0.15435,-0.0122 m 0.15388,-0.017 m 0.15328,-0.0218 m 0.15252,-0.0266 m 0.1516,-0.0314 m 0.15055,-0.0361 m 0.14933,-0.0409 m 0.14798,-0.0455 m 0.14647,-0.0502 m 0.14483,-0.0547 m 0.14304,-0.0593 m 0.1411,-0.0637 m 0.13904,-0.0681 m 0.13683,-0.0724 m 0.13448,-0.07671 m 0.13201,-0.08089 m 0.1294,-0.085 m 0.12667,-0.08902 m 0.1238,-0.09296 m 0.12083,-0.0968 m 0.11773,-0.100549 m 0.11451,-0.104197 m 0.11118,-0.107743 m 0.10775,-0.111182 m 0.10419,-0.114511 m 0.10055,-0.117728 m 0.0968,-0.120828 m 0.093,-0.123809 m 0.089,-0.126667 m 0.085,-0.129402 m 0.0809,-0.132007 m 0.0767,-0.134484 m 0.0724,-0.136826 m 0.0681,-0.139035 m 0.0637,-0.141105 m 0.0592,-0.143037 m 0.0547,-0.144828 m 0.0502,-0.146475 m 0.0455,-0.147978 m 0.0409,-0.149335 m 0.0361,-0.150544 m 0.0314,-0.151605 m 0.0266,-0.152517 m 0.0218,-0.153278 m 0.017,-0.153887 m 0.0121,-0.154345 m 0.007,-0.15465 m 9.5e-4,-0.06046 m -9.5e-4,-0.06046 m -0.007,-0.154651 m -0.0121,-0.154345 m -0.017,-0.153887 m -0.0218,-0.153277 m -0.0266,-0.152517 m -0.0314,-0.151606 m -0.0361,-0.150544 m -0.0409,-0.149335 m -0.0455,-0.147978 m -0.0502,-0.146475 m -0.054,-0.145519 m -0.0592,-0.143037 m -0.0637,-0.141106 m -0.0681,-0.139034 m -0.0724,-0.136827 m -0.0767,-0.134483 m -0.0809,-0.132008 m -0.085,-0.129401 m -0.089,-0.126668 m -0.093,-0.123809 m -0.0968,-0.120828 m -0.10055,-0.117728 m -0.10419,-0.114511 m -0.10775,-0.111182 M 156.678,92.335636 m -0.11451,-0.104198 m -0.11773,-0.100549 m -0.12083,-0.0968 m -0.1238,-0.09296 m -0.12667,-0.08902 m -0.1294,-0.085 m -0.13201,-0.08089 m -0.13448,-0.07671 m -0.13683,-0.07245 m -0.13904,-0.06811 m -0.1411,-0.06371 m -0.14304,-0.05925 m -0.14483,-0.05473 m -0.14647,-0.05015 m -0.14798,-0.04552 m -0.14933,-0.04085 m -0.15055,-0.03614 m -0.1516,-0.0314 m -0.15252,-0.02662 m -0.15328,-0.02182 m -0.15388,-0.01699 m -0.15435,-0.01215 m -0.15465,-0.0073 m -0.1548,-0.0024 m 0,1.856691 m -1.15015,0 m -0.007,-0.05998 m -0.0221,-0.169215 m -0.0231,-0.169084 m -0.0241,-0.16895 m -0.025,-0.168808 m -0.026,-0.168661 m -0.027,-0.168509 m -0.028,-0.168351 m -0.0289,-0.168187 m -0.0299,-0.168019 m -0.0309,-0.167844 m -0.0318,-0.167663 m -0.0328,-0.167478 m -0.0337,-0.167287 m -0.0347,-0.16709 m -0.0357,-0.166888 m -0.0366,-0.16668 m -0.0376,-0.166466 m -0.0385,-0.166248 m -0.0395,-0.166024 m -0.0404,-0.165793 m -0.0414,-0.165559 m -0.0423,-0.165318 m -0.0433,-0.165071 m -0.0443,-0.16482 m -0.0452,-0.164563 m -0.0461,-0.1643 m -0.0471,-0.164032 m -0.048,-0.163759 m -0.023,-0.07667 m -0.026,-0.08681 m -0.0499,-0.163196 m -0.0508,-0.162906 m -0.0518,-0.162611 m -0.0557,-0.173149 m -0.55587,-1.682493 m -0.58256,-1.673439 m -0.60911,-1.663963 m -0.63549,-1.654065 m -0.66172,-1.643748 m -0.68777,-1.633017 m -0.71367,-1.621871 m -0.61314,-1.335397 m -0.12622,-0.274918 m -0.76489,-1.598353 m -0.79021,-1.585986 m -0.28612,-0.550538 m -0.28858,-0.549252 M 143.2989,69.28561 m -0.29349,-0.546646 m -0.29593,-0.545326 m -0.29837,-0.543996 m -0.30081,-0.542654 m -0.30323,-0.541302 m -0.30566,-0.53994 m -0.30806,-0.538565 m -0.31048,-0.53718 M 140.57,64.414215 m -0.82147,-1.279978 m -1.05493,-1.587629 m -0.34559,-0.502572 m -0.73446,-1.068077 m -1.10489,-1.553274 m -1.12946,-1.535504 m -1.15373,-1.517347 m -1.17773,-1.498805 m -1.2014,-1.479885 m -1.2248,-1.46059 m -1.24787,-1.440926 m -1.27063,-1.420897 m -1.29306,-1.400509 m -1.31518,-1.379766 m -1.33696,-1.358674 m -1.35839,-1.337239 m -1.37949,-1.315466 m -1.40024,-1.293359 m -1.42063,-1.270926 m -1.44067,-1.248171 m -1.46033,-1.2251 m -1.47963,-1.201719 m -1.49856,-1.178035 m -1.51711,-1.154052 m -1.53527,-1.129778 m -1.55304,-1.105217 m -1.57042,-1.080377 m -1.58741,-1.055264 m -1.60399,-1.029884 m -1.62017,-1.004243 m -1.63593,-0.978348 M 98.445273,24.370398 M 96.77905,23.444575 M 95.098314,22.54537 m -1.694825,-0.872361 m -1.708485,-0.845295 m -1.721713,-0.818016 m -1.734505,-0.790529 m -1.536798,-0.671111 m 0.381109,-0.84289 m 0.911188,0.41199 m 0.03142,-0.166567 m 0.02678,-0.167375 m 0.02211,-0.168055 m 0.01744,-0.168605 m 0.01274,-0.169024 m 0.008,-0.169313 m 0.0033,-0.169471 m -0.0014,-0.169498 m -0.0061,-0.169395 m -0.01079,-0.16916 M 88.082423,16.2619 m -0.02017,-0.1683 m -0.02484,-0.167674 m -0.02949,-0.166919 m -0.03411,-0.166036 m -0.03872,-0.165023 m -0.04329,-0.163884 m -0.04782,-0.162617 m -0.05232,-0.161226 m -0.05678,-0.15971 m -0.0612,-0.15807 m -0.06557,-0.156308 m -0.06989,-0.154426 m -0.07415,-0.152425 m -0.07836,-0.150305 m -0.0825,-0.14807 m -0.08659,-0.145719 m -0.0906,-0.143258 m -0.09455,-0.140685 m -0.09842,-0.138003 M 86.830831,13.158027 M 86.724895,13.025705 M 86.615323,12.896377 M 86.5022,12.770145 M 86.385613,12.647104 M 86.265652,12.52735 M 86.142409,12.410977 M 86.01598,12.298072 m -0.129517,-0.109347 m -0.132506,-0.105706 m -0.135391,-0.101984 m -0.138174,-0.09818 m -0.140848,-0.0943 m -0.143415,-0.09035 m -0.14587,-0.08633 m -0.148212,-0.08225 m -0.150441,-0.0781 m -0.152552,-0.07389 m -0.154547,-0.06962 m -0.156422,-0.0653 m -0.158176,-0.06093 m -0.159808,-0.05651 m -0.161316,-0.05204 m -0.162701,-0.04754 m -0.163958,-0.043 m -0.16509,-0.03843 m -0.166094,-0.03383 m -0.16697,-0.0292 m -0.167717,-0.02455 m -0.168335,-0.01988 m -0.168821,-0.01519 m -0.169179,-0.0105 m -0.169405,-0.0058 m -0.1695,-0.0011 m -0.169466,0.0036 m -0.169298,0.0083 m -0.169002,0.01304 m -0.168574,0.01773 m -0.168017,0.02241 m -0.167329,0.02707 m -0.166512,0.03171 m -0.165567,0.03632 m -0.164493,0.04091 m -0.163294,0.04546 m -0.161967,0.04998 m -0.160515,0.05446 m -0.158941,0.0589 m -0.157242,0.0633 m -0.155422,0.06764 m -0.153483,0.07193 m -0.151425,0.07617 m -0.149249,0.08035 m -0.14696,0.08447 m -0.144555,0.08852 m -0.14204,0.0925 m -0.139414,0.09641 m -0.136682,0.100248 m -0.133844,0.104008 m -0.130901,0.107686 m -0.127859,0.111282 m -0.124717,0.114792 m -0.121479,0.118214 m -0.118147,0.121543 m -0.114724,0.12478 m -0.111213,0.127919 m -0.107615,0.13096 m -0.103934,0.1339 m -0.100174,0.136737 m -0.09633,0.139467 m -0.09242,0.14209 m 3.594632,1.425932 m -0.330152,0.730189 m -2.631381,-0.91177 m -0.847079,-0.259618 m -1.702203,-0.492226 m -1.463984,-0.398222 m -0.245831,-0.06687 M 71.515216,13.238598 M 69.791474,12.828122 M 68.061421,12.445113 M 66.325495,12.089668 M 64.584136,11.761877 M 62.837783,11.461823 M 61.08688,11.189581 M 59.331867,10.94522 m -1.758676,-0.216417 m -1.761896,-0.188419 m -1.76467,-0.160373 M 52.279628,10.247723 M 50.51075,10.143556 m -1.770311,-0.07602 m -1.771296,-0.04786 M 45.19731,10 m -1.771921,0.0085 m -1.771563,0.03668 m -1.770755,0.06485 m -1.769499,0.09301 m -1.767797,0.121141 m -1.765646,0.149241 m -1.763049,0.177303 m -1.760007,0.205322 m -1.756518,0.233287 m -1.752586,0.261194 m -1.74821,0.289035 m -1.743392,0.316802 m -1.738133,0.34449 m -1.732434,0.37209 m -1.726297,0.399597 m -1.719724,0.427001 m -3.534735,1.026936 m -0.150129,0.04619 m -0.148605,0.05088 m -0.146933,0.05552 m -0.145116,0.06011 m -0.143157,0.06464 m -0.141056,0.0691 m -0.138816,0.0735 m -0.136439,0.07782 m -0.133927,0.08207 m -0.131283,0.08624 m -0.128509,0.09032 m -0.125609,0.09431 m -0.122585,0.09821 M 11.693441,15.5774 m -0.116177,0.105712 m -0.112798,0.109309 m -0.109309,0.112799 m -0.105712,0.11618 m -0.102011,0.119439 m -0.09821,0.122585 m -0.09431,0.125609 m -0.09032,0.128509 m -0.08624,0.131283 m -0.08207,0.133927 m -0.07782,0.136439 m -0.0735,0.138816 m -0.0691,0.141056 m -0.06464,0.143157 m -0.06011,0.145116 m -0.05552,0.146934 m -0.05088,0.148604 m -0.04618,0.15013 m -0.04145,0.151506 m -0.03667,0.152733 m -0.03185,0.15381 m -0.02701,0.154734 m -0.02213,0.155506 m -0.01724,0.156125 m -0.01232,0.156589 m -0.0074,0.156898 M 10,19.327959 m 0.0025,0.157054 m 0.0074,0.156899 m 0.01232,0.156589 m 0.01724,0.156124 m 0.02213,0.155506 m 0.02701,0.154735 m 0.03185,0.153809 m 0.03667,0.152734 m 0.04145,0.151506 m 0.04618,0.150129 m 0.05088,0.148605 m 0.05552,0.146933 m 0.06011,0.145117 m 0.06464,0.143157 m 0.0691,0.141056 m 0.0735,0.138816 m 0.07782,0.136438 m 0.08207,0.133927 m 0.08624,0.131283 m 0.09032,0.128509 m 0.09431,0.125609 m 0.09821,0.122585 m 0.102011,0.119439 m 0.105712,0.116177 m 0.109309,0.112798 m 0.112798,0.109309 m 0.116177,0.105712 m 0.119439,0.102011 m 0.122585,0.09821 m 0.125609,0.09431 m 0.128509,0.09032 m 0.131283,0.08624 m 0.133927,0.08207 m 0.136439,0.07782 m 0.138816,0.0735 m 0.141056,0.0691 m 0.143157,0.06464 m 0.145116,0.06011 m 0.146933,0.05552 m 0.148605,0.05088 m 0.150129,0.04619 m 0.151507,0.04145 m 0.152733,0.03667 m 0.153809,0.03185 m 0.154735,0.02701 m 0.155506,0.02213 m 0.156124,0.01724 m 0.156589,0.01232 m 0.156899,0.0074 M 15,24.327959 m 0.157054,-0.0025 m 0.156899,-0.0074 m 0.156589,-0.01232 m 0.156124,-0.01724 m 0.155506,-0.02213 m 0.154735,-0.02701 m 0.153809,-0.03185 m 5.994962,-0.0571 m 5.992935,0.166015 m 5.982607,0.388898 m 5.963992,0.611243 m 5.937119,0.83274 m 5.902019,1.053085 m 5.858748,1.271971 m 5.807359,1.489094 m 5.747928,1.704157 m 5.680536,1.916857 m 2.952285,1.120235 m 2.593049,1.309777 m 3.104918,1.816528 m 2.987152,2.004299 m 2.858044,2.184462 m 2.718087,2.356331 m 2.567809,2.519255 m 2.407784,2.672614 m 2.238618,2.815827 m 2.217573,3.263063 m 2.39841,4.055484 m 2.13903,4.198079 m 1.8712,4.324105 m 1.59601,4.433067 m 1.31449,4.524533 m 1.02781,4.598143 m 0.73706,4.653606 m 0.0268,0.283684 M 29.400217,18.757922 m -0.910795,0.118252 m -0.727647,-0.560413 m -0.118252,-0.910796 m 0.560414,-0.727647 m 0.910795,-0.118251 m 0.727647,0.560413 m 0.118252,0.910796 m -10.740833,1.02264 m -0.642216,0.75996 m -0.991487,0.08326 m -0.759959,-0.642215 m -0.08326,-0.991488 m 0.642216,-0.759959 m 0.991487,-0.08326 m 0.759959,0.642216 m -0.558956,153.79351 m 0.642216,0.75996 m -0.08326,0.99148 m -0.759959,0.64222 m -0.991487,-0.0833 m -0.642216,-0.75996 m 0.08326,-0.99149 m 0.759959,-0.64221 m 10.903327,1.01996 m 0.910795,0.11825 m 0.560414,0.72765 m -0.118252,0.91079 m -0.727647,0.56041 m -0.910795,-0.11825 m -0.560414,-0.72764 m 0.118252,-0.9108"
       style="fill:none;stroke:#00ff00;stroke-width:1;stroke-linecap:round;stroke-linejoin:round;stroke-miterlimit:4;stroke-dasharray:none"
       id="path24"
       inkscape:connector-curvature="0" />
  </g>
</svg>
